…
<img src="{{< blogdown/postref >}}index.en_files/figure-html/unnamed-chunk-6-1.png" width="672" />
I chose different colors as the range of numbers for the ratings was 0-7, not 0-100 (like the map above this one). This made more sense for visualization & was a good way to track the two different maps.

To quantify the R^2 value between expert predictions & Democratic Party vote share, I decided to run the lineral regression model to find my number.

I began launching my code by sorting out the expert ratings for the 3 forecasters (will be referred to as CSI for the remainder of the blog post). I started by following a prediction based strictly on 2018’s forecast accuracy.

I created a new dataset called “new_train_data_2018”, combining my data sets of the Democratic Party’s vote share in districts & the CSI ratings, all from 2018. This allowed me to use this as my baseline data & run a model to find the correlation between expert prediction and Democratic Vote share.

The R^2 value was 0.8118 & told me there was a significant connection between the Democratic Party’s vote share & expert ratings. It showed above average accuracy & told me that I could trust my Big 3: Cook Political Report, Larry Sabato’s Crystal Ball, and Inside Elections. Using the 2018 accuracy, I decided to put my CSI to the test in predicting the 2022 midterms.

Quick reminder: we are only predicting the “competitive” seats as outlined in the dataset.
Here are the 2022 predictions:

## # A tibble: 141 × 8
##     year state     district sabatos_crystal…  cook rothenberg avg_csi prediction
##    <dbl> <chr>     <chr>               <dbl> <dbl>      <dbl>   <dbl>      <dbl>
##  1  2022 Alaska    AL                      4     4       4.75    4.25       50.4
##  2  2022 Arizona   1                       5     4       5.5     4.83       48.9
##  3  2022 Arizona   2                       5     5       5.5     5.17       48.1
##  4  2022 Arizona   4                       3     2       1.75    2.25       55.4
##  5  2022 Arizona   6                       5     5       4.75    4.92       48.7
##  6  2022 Californ… 3                       6     6       6.25    6.08       45.8
##  7  2022 Californ… 6                       1     1       1       1          58.5
##  8  2022 Californ… 9                       3     3       1.75    2.58       54.6
##  9  2022 Californ… 13                      4     4       2.5     3.5        52.3
## 10  2022 Californ… 21                      2     1       1       1.33       57.7
## # … with 131 more rows

To make things better, I decided to take into account CSI data & accuracy for 2010 through 2018. This meant repeating the above (for 2018), but including 4 more elections! How exciting!

We calculated the R^2 value of the 2010-2018 connection between prediction & Democratic Party vote share & found it to be 0.7. Not as correlated as 2018, but still pretty good. Then, we calculated 2022 predictions based on 2010-2018 accuracy.

Here it is:

## # A tibble: 141 × 8
##     year state     district sabatos_crystal…  cook rothenberg avg_csi prediction
##    <dbl> <chr>     <chr>               <dbl> <dbl>      <dbl>   <dbl>      <dbl>
##  1  2022 Alaska    AL                      4     4       4.75    4.25       48.1
##  2  2022 Arizona   1                       5     4       5.5     4.83       46.5
##  3  2022 Arizona   2                       5     5       5.5     5.17       45.6
##  4  2022 Arizona   4                       3     2       1.75    2.25       53.5
##  5  2022 Arizona   6                       5     5       4.75    4.92       46.3
##  6  2022 Californ… 3                       6     6       6.25    6.08       43.1
##  7  2022 Californ… 6                       1     1       1       1          56.9
##  8  2022 Californ… 9                       3     3       1.75    2.58       52.6
##  9  2022 Californ… 13                      4     4       2.5     3.5        50.2
## 10  2022 Californ… 21                      2     1       1       1.33       56.0
## # … with 131 more rows
…
