Blog Post #6 - Ground Game | Academic
…
In the above model, the R^2 was found to be 0.756. This is quite significant in terms of correlation, showing how there is a correlation between incumbency, expert predictions, AND turnout. All 3 of the factors increase the correlation between the variables – getting it closer to 1, each time we added a new variable.

Unfortunately, I will not be using turnout or incumbency in my final prediction, but for my 2022 forecast, I am now considering using expert predictions. Here is my prediction based on that:

## # A tibble: 141 × 8
##     year state     district sabatos_crystal…  cook rothenberg avg_csi prediction
##    <dbl> <chr>     <chr>               <dbl> <dbl>      <dbl>   <dbl>      <dbl>
##  1  2022 Alaska    AL                      4     4       4.75    4.25       50.4
##  2  2022 Arizona   1                       5     4       5.5     4.83       48.9
##  3  2022 Arizona   2                       5     5       5.5     5.17       48.1
##  4  2022 Arizona   4                       3     2       1.75    2.25       55.4
##  5  2022 Arizona   6                       5     5       4.75    4.92       48.7
##  6  2022 Californ… 3                       6     6       6.25    6.08       45.8
##  7  2022 Californ… 6                       1     1       1       1          58.5
##  8  2022 Californ… 9                       3     3       1.75    2.58       54.6
##  9  2022 Californ… 13                      4     4       2.5     3.5        52.3
## 10  2022 Californ… 21                      2     1       1       1.33       57.7
## # … with 131 more rows
…
